Accelerometry in R – Introduction to Accelerometer Data
…
Sampling Rate: 30Hz
Firmware Version: 1.9.2
Serial Number Prefix: MOS
                 time     X     Y      Z
1 2017-10-30 15:00:00 0.188 0.145 -0.984
2 2017-10-30 15:00:00 0.180 0.125 -0.988
3 2017-10-30 15:00:00 0.184 0.121 -0.984
4 2017-10-30 15:00:00 0.184 0.121 -0.992
5 2017-10-30 15:00:00 0.184 0.117 -0.988
6 2017-10-30 15:00:00 0.184 0.125 -0.988

options(digits.secs = 3)
dplyr::as_tibble(df)

# A tibble: 18,144,000 × 4
   time                        X     Y      Z
   <dttm>                  <dbl> <dbl>  <dbl>
 1 2017-10-30 15:00:00.000 0.188 0.145 -0.984
 2 2017-10-30 15:00:00.033 0.18  0.125 -0.988
 3 2017-10-30 15:00:00.066 0.184 0.121 -0.984
 4 2017-10-30 15:00:00.099 0.184 0.121 -0.992
 5 2017-10-30 15:00:00.133 0.184 0.117 -0.988
 6 2017-10-30 15:00:00.166 0.184 0.125 -0.988
 7 2017-10-30 15:00:00.200 0.18  0.125 -0.988
 8 2017-10-30 15:00:00.233 0.176 0.121 -0.992
 9 2017-10-30 15:00:00.266 0.184 0.121 -0.984
10 2017-10-30 15:00:00.299 0.18  0.121 -0.992
# ℹ 18,143,990 more rows
…
